<?xml version="1.0" encoding="UTF-8"?>
<!DOCTYPE svg  PUBLIC '-//W3C//DTD SVG 20010904//EN'  'http://www.w3.org/TR/2001/REC-SVG-20010904/DTD/svg10.dtd'>
<svg width=".83333in" height=".83333in" viewBox="0 0 250 250" xmlns="http://www.w3.org/2000/svg">
 <path id="Instagram" d="m109 0.22h26c6.78-0.14 15.39 1.72 22 3.41 34.65 8.88 65.23 32.85 80.68 65.37 11.49 24.18 12.62 39.96 12.32 66-0.1 8.39-3.05 20.96-5.67 29-4.45 13.64-10.24 25.55-18.98 37-11.8 15.45-24.38 25.86-41.35 35.14-13.51 7.38-35.57 13.84-51 13.86h-18c-8.39-0.1-20.96-3.05-29-5.67-35.97-11.73-63.55-37.03-77.55-72.33-8.36-21.08-8.48-33.08-8.45-55 0.01-8.14 1.61-16.13 3.63-24 8.96-34.98 31.4-62.9 63.37-79.68 13.04-6.85 27.56-10.53 42-13.1zm-29 57.91c-12.23 3.93-21.84 14.88-22 27.87v76c0 2.67-0.1 5.4 0.63 8 2.47 8.68 11.63 18.84 20.37 21.36 2.57 0.75 5.35 0.64 8 0.64h77c2.65 0 5.43 0.11 8-0.64 7.7-2.22 17.14-11.64 19.36-19.36 0.75-2.57 0.64-5.35 0.64-8v-79c0-2.56 0.11-5.55-0.65-8-2.27-7.37-11.94-16.23-19.35-18.36-2.58-0.75-5.34-0.64-8-0.51h-54-30zm12 14.39 26-0.52h23c14.51 0 29.98-1.06 35.89 16 1.23 3.54 1.1 6.34 1.11 10v44c0 6.63 0.77 16.07-2.05 22-5.34 11.25-15.56 13.98-26.95 14h-48c-8.78-0.04-15.57-1.42-21.9-8.04-5.84-6.12-7-14.8-7.1-22.96v-34c0-17.9-1.22-34.77 20-40.48zm68 9.15c-14.27 1.88-10.96 18.25 0 18.12 9.92-0.12 12.8-15.81 0-18.12zm-39 9.63c-6.97 1.32-13.68 3.91-18.91 8.88-7.77 7.4-10.2 15.46-10.09 25.82 0.21 18.41 14.05 31.25 32 32.68 3.08 0.24 7.99-0.62 11-1.44 30.59-8.24 32.46-52.32 3-63.77-5.44-2.12-11.23-2.74-17-2.17zm0 15.01c2.22-0.14 3.72-0.37 6 0 9.09 0.42 18.56 10.32 17.77 19.69-0.79 9.42-11.16 18.75-20.77 17.8-20.15-1.99-25.16-30.16-3-37.49z" fill="#f3f3f3" stroke="#000"/>
</svg>
