<?xml version="1.0" encoding="UTF-8" standalone="no"?>
<svg xmlns="http://www.w3.org/2000/svg"
     width="1.03333in" height="1.03333in"
     viewBox="0 0 310 310">
  <path id="Selection"
        fill="#ffffff" stroke="#ffffff" stroke-width="1"
        d="M 152.02,2.75
           C 160.26,1.20 162.90,6.78 163.00,14.00
             163.00,14.00 163.00,54.00 163.00,54.00
             162.99,60.17 161.76,69.11 153.00,67.34
             147.06,66.13 146.07,61.12 146.00,56.00
             146.00,56.00 146.00,15.00 146.00,15.00
             146.03,8.77 146.11,5.97 152.02,2.75 Z
           M 51.00,44.74
           C 57.66,44.27 60.60,48.60 65.00,53.00
             65.00,53.00 92.69,81.00 92.69,81.00
             96.70,86.35 95.26,94.21 87.99,95.38
             82.19,96.31 77.68,90.67 74.00,87.00
             74.00,87.00 46.43,59.00 46.43,59.00
             42.07,53.00 44.45,47.33 51.00,44.74 Z
           M 256.00,44.81
           C 263.16,45.55 267.26,51.49 263.26,58.00
             263.26,58.00 235.00,87.00 235.00,87.00
             231.88,90.12 227.65,95.11 223.00,95.48
             215.04,96.10 211.71,87.24 215.89,81.28
             215.89,81.28 242.00,55.00 242.00,55.00
             246.39,50.61 249.68,45.94 256.00,44.81 Z
           M 146.00,80.21
           C 146.00,80.21 154.00,80.21 154.00,80.21
             173.46,79.98 192.98,87.33 206.99,101.04
             233.68,127.17 236.75,171.56 213.71,201.00
             208.04,208.25 200.99,214.50 193.00,219.13
             184.97,223.77 175.23,227.50 166.00,228.71
             152.97,230.43 139.32,229.52 127.00,224.55
             83.80,207.10 66.67,155.89 90.45,116.00
             95.93,106.81 101.42,100.85 110.00,94.48
             121.33,86.06 132.29,82.67 146.00,80.21 Z
           M 8.02,146.74
           C 13.27,145.46 19.55,146.00 25.00,146.00
             25.00,146.00 54.00,146.00 54.00,146.00
             57.32,146.02 60.85,145.91 63.76,148.01
             67.83,151.13 68.11,158.22 63.76,161.40
             61.35,163.27 57.96,162.99 55.00,163.00
             55.00,163.00 15.00,163.00 15.00,163.00
             11.81,162.99 7.91,163.29 5.23,161.26
             -0.67,156.81 2.49,149.79 8.02,146.74 Z
           M 248.04,146.65
           C 248.04,146.65 293.00,146.00 293.00,146.00
             295.87,146.00 299.37,145.79 301.96,147.17
             307.64,150.21 308.41,157.76 303.77,161.26
             301.09,163.29 297.19,162.99 294.00,163.00
             294.00,163.00 254.00,163.00 254.00,163.00
             251.08,162.99 247.67,163.29 245.23,161.40
             239.80,157.21 241.52,149.63 248.04,146.65 Z
           M 84.00,214.75
           C 90.52,213.48 95.85,216.76 94.76,224.00
             94.05,228.74 89.26,232.74 86.00,236.00
             86.00,236.00 67.00,255.00 67.00,255.00
             64.20,257.80 59.61,262.91 56.00,264.26
             51.01,266.13 45.59,263.26 44.47,258.00
             43.36,252.75 48.70,248.32 52.00,245.00
             52.00,245.00 70.99,226.00 70.99,226.00
             75.20,221.73 78.56,217.51 84.00,214.75 Z
           M 219.04,214.74
           C 226.36,213.13 229.14,217.17 234.00,222.00
             234.00,222.00 261.72,250.00 261.72,250.00
             265.65,254.94 266.00,262.35 258.96,264.49
             253.02,266.29 248.81,261.75 245.00,258.00
             245.00,258.00 217.23,230.00 217.23,230.00
             212.79,224.59 212.63,218.47 219.04,214.74 Z
           M 152.04,242.66
           C 160.83,241.28 162.95,246.35 163.00,254.00
             163.00,254.00 163.00,294.00 163.00,294.00
             162.99,300.74 162.15,308.16 153.00,306.76
             146.87,305.82 146.08,301.21 146.00,296.00
             146.00,296.00 146.00,254.00 146.00,254.00
             146.04,247.99 146.14,245.32 152.04,242.66 Z" />
</svg>
